by\hurman_dzmitry\config\swagger\SwaggerConfig.class
by\hurman_dzmitry\controller\RoleController.class
by\hurman_dzmitry\config\web\WebSecurityConfiguration.class
by\hurman_dzmitry\controller\requests\CustomerCreateRequest.class
by\hurman_dzmitry\service\UserDetailsServiceImpl.class
by\hurman_dzmitry\ApplicationStarter.class
by\hurman_dzmitry\controller\StockController.class
by\hurman_dzmitry\controller\CustomerController.class
by\hurman_dzmitry\controller\requests\SearchCriteria.class
